\begin{thebibliography}{1}

\bibitem{hotelling}
Harold Hotelling.
\newblock Relations between two sets of variates.
\newblock {\em Biometrika}, 28(3/4):321--377, 1936.

\bibitem{Jolliffe2016}
Ian~T. Jolliffe and Jorge Cadima.
\newblock Principal component analysis: a review and recent developments.
\newblock {\em Philos Trans A Math Phys Eng Sci}, 374(2065):20150202, Apr 2016.
\newblock rsta20150202[PII].

\bibitem{raschkaStand}
Sebastian Raschka.
\newblock About feature scaling and normalization.
\newblock 2014.

\bibitem{raschkaPCA}
Sebastian Raschka.
\newblock Implementing a principal component analysis (pca).
\newblock 2014.

\bibitem{vandenBerg2006}
Robert~A. van~den Berg, Huub~CJ Hoefsloot, Johan~A. Westerhuis, Age~K. Smilde,
  and Mari{\"e}t~J. van~der Werf.
\newblock Centering, scaling, and transformations: improving the biological
  information content of metabolomics data.
\newblock {\em BMC Genomics}, 7(1):142, Jun 2006.

\end{thebibliography}
