\relax 
\providecommand\hyper@newdestlabel[2]{}
\providecommand*\new@tpo@label[2]{}
\catcode `"\active 
\catcode `-\active 
\providecommand\HyperFirstAtBeginDocument{\AtBeginDocument}
\HyperFirstAtBeginDocument{\ifx\hyper@anchor\@undefined
\global\let\oldcontentsline\contentsline
\gdef\contentsline#1#2#3#4{\oldcontentsline{#1}{#2}{#3}}
\global\let\oldnewlabel\newlabel
\gdef\newlabel#1#2{\newlabelxx{#1}#2}
\gdef\newlabelxx#1#2#3#4#5#6{\oldnewlabel{#1}{{#2}{#3}}}
\AtEndDocument{\ifx\hyper@anchor\@undefined
\let\contentsline\oldcontentsline
\let\newlabel\oldnewlabel
\fi}
\fi}
\global\let\hyper@last\relax 
\gdef\HyperFirstAtBeginDocument#1{#1}
\providecommand\HyField@AuxAddToFields[1]{}
\providecommand\HyField@AuxAddToCoFields[2]{}
\bibstyle{plain}
\citation{Jolliffe2016}
\citation{Jolliffe2016}
\citation{raschkaPCA}
\citation{raschkaPCA}
\citation{hotelling}
\select@language{czech}
\@writefile{toc}{\select@language{czech}}
\@writefile{lof}{\select@language{czech}}
\@writefile{lot}{\select@language{czech}}
\@writefile{toc}{\contentsline {section}{\numberline {1}\IeC {\'U}vod}{1}{section.1}}
\@writefile{toc}{\contentsline {section}{\numberline {2}Jak funguje PCA}{1}{section.2}}
\@writefile{lof}{\contentsline {figure}{\numberline {1}{\ignorespaces PCA -- vlastn\IeC {\'\i } vektory \cite  {raschkaPCA}}}{1}{figure.1}}
\newlabel{fig:eigenvectors}{{1}{1}{PCA -- vlastní vektory \cite {raschkaPCA}}{figure.1}{}}
\@writefile{lof}{\contentsline {figure}{\numberline {2}{\ignorespaces PCA -- p\IeC {\v r}\IeC {\'\i }klad}}{1}{figure.2}}
\newlabel{fig:pcaexample}{{2}{1}{PCA -- příklad}{figure.2}{}}
\@writefile{toc}{\contentsline {subsection}{\numberline {2.1}Podobn\IeC {\'e} algoritmy}{1}{subsection.2.1}}
\citation{vandenBerg2006,raschkaStand}
\citation{vandenBerg2006}
\citation{raschkaStand}
\bibdata{reference}
\bibcite{hotelling}{{1}{}{{}}{{}}}
\bibcite{Jolliffe2016}{{2}{}{{}}{{}}}
\bibcite{raschkaStand}{{3}{}{{}}{{}}}
\bibcite{raschkaPCA}{{4}{}{{}}{{}}}
\bibcite{vandenBerg2006}{{5}{}{{}}{{}}}
\providecommand\NAT@force@numbers{}\NAT@force@numbers
\@writefile{toc}{\contentsline {section}{\numberline {3}P\IeC {\v r}edzpracov\IeC {\'a}n\IeC {\'\i } dat -- standardizace}{2}{section.3}}
\@writefile{toc}{\contentsline {subsection}{\numberline {3.1}Metody \IeC {\v s}k\IeC {\'a}lov\IeC {\'a}n\IeC {\'\i }/standardizace}{2}{subsection.3.1}}
\@writefile{toc}{\contentsline {subsection}{\numberline {3.2}Kdy (ne)standardizovat}{2}{subsection.3.2}}
\@writefile{toc}{\contentsline {section}{\numberline {4}Z\IeC {\'a}v\IeC {\v e}r}{2}{section.4}}
